LowLevelProgramming (VHDL, SystemC)/sysc_example_cygwin/counter.vcd
$date
     May 24, 2023       08:18:00
$end

$version
              SystemC 2.2.0 --- Apr 10 2020 23:55:07
$end

$timescale
     1 ps
$end

$scope module SystemC $end
$var wire    1  aaa  clock       $end
$var wire    1  aab  reset       $end
$var wire    3  aac  count [2:0]  $end
$upscope $end
$enddefinitions  $end

$comment
All initial values are dumped below at time 1e-09 sec = 1000 timescale units.
$end

$dumpvars
0aaa
0aab
b0 aac
$end

#2000
1aaa
b1 aac

#3000
0aaa

#4000
1aaa
b11 aac

#5000
0aaa

#6000
1aaa
b10 aac

#7000
0aaa

#8000
1aaa
b110 aac

#9000
0aaa

#10000
1aaa
b111 aac

#11000
0aaa
1aab
b0 aac

#12000
1aaa

#13000
0aaa

#14000
1aaa

#15000
0aaa

#16000
1aaa

#17000
0aaa

#18000
1aaa

#19000
0aaa

#20000
1aaa

#21000
0aaa

#22000
1aaa

#23000
0aaa

#24000
1aaa

#25000
0aaa

#26000
1aaa

#27000
0aaa

#28000
1aaa

#29000
0aaa

#30000
1aaa

#31000
0aaa
0aab

#32000
1aaa
b1 aac

#33000
0aaa

#34000
1aaa
b11 aac

#35000
0aaa

#36000
1aaa
b10 aac

#37000
0aaa

#38000
1aaa
b110 aac

#39000
0aaa

#40000
1aaa
b111 aac

#41000
0aaa

#42000
1aaa
b101 aac

#43000
0aaa

#44000
1aaa
b100 aac

#45000
0aaa

#46000
1aaa
b0 aac

#47000
0aaa

#48000
1aaa
b1 aac

#49000
0aaa

#50000
1aaa
b11 aac

#51000
0aaa

#52000
1aaa
b10 aac

#53000
0aaa

#54000
1aaa
b110 aac

#55000
0aaa

#56000
1aaa
b111 aac

#57000
0aaa

#58000
1aaa
b101 aac

#59000
0aaa

#60000
1aaa
b100 aac

#61000
0aaa

#62000
1aaa
b0 aac

#63000
0aaa

#64000
1aaa
b1 aac

#65000
0aaa

#66000
1aaa
b11 aac

#67000
0aaa

#68000
1aaa
b10 aac

#69000
0aaa

#70000
1aaa
b110 aac

#71000
0aaa

#72000
1aaa
b111 aac

#73000
0aaa

#74000
1aaa
b101 aac

#75000
0aaa

#76000
1aaa
b100 aac

#77000
0aaa

#78000
1aaa
b0 aac

#79000
0aaa

#80000
1aaa
b1 aac

#81000
0aaa

#82000
1aaa
b11 aac

#83000
0aaa

#84000
1aaa
b10 aac

#85000
0aaa

#86000
1aaa
b110 aac

#87000
0aaa

#88000
1aaa
b111 aac

#89000
0aaa

#90000
1aaa
b101 aac

#91000
0aaa

#92000
1aaa
b100 aac

#93000
0aaa

#94000
1aaa
b0 aac

#95000
0aaa

#96000
1aaa
b1 aac

#97000
0aaa

#98000
1aaa
b11 aac

#99000
0aaa

#100000
1aaa
b10 aac

#101000
0aaa

#102000
1aaa
b110 aac

#103000
0aaa

#104000
1aaa
b111 aac

#105000
0aaa

#106000
1aaa
b101 aac

#107000
0aaa

#108000
1aaa
b100 aac

#109000
0aaa

#110000
1aaa
b0 aac

#111000
0aaa

#112000
1aaa
b1 aac

#113000
0aaa

#114000
1aaa
b11 aac

#115000
0aaa

#116000
1aaa
b10 aac

#117000
0aaa

#118000
1aaa
b110 aac

#119000
0aaa

#120000
1aaa
b111 aac

#121000
0aaa

#122000
1aaa
b101 aac

#123000
0aaa

#124000
1aaa
b100 aac

#125000
0aaa

#126000
1aaa
b0 aac

#127000
0aaa

#128000
1aaa
b1 aac

#129000
0aaa

#130000
1aaa
b11 aac

#131000
0aaa

#132000
1aaa
b10 aac

#133000
0aaa

#134000
1aaa
b110 aac

#135000
0aaa

#136000
1aaa
b111 aac

#137000
0aaa

#138000
1aaa
b101 aac

#139000
0aaa

#140000
1aaa
b100 aac

#141000
0aaa

#142000
1aaa
b0 aac

#143000
0aaa

#144000
1aaa
b1 aac

#145000
0aaa

#146000
1aaa
b11 aac

#147000
0aaa

#148000
1aaa
b10 aac

#149000
0aaa

#150000
1aaa
b110 aac

#151000
0aaa

#152000
1aaa
b111 aac

#153000
0aaa

#154000
1aaa
b101 aac

#155000
0aaa

#156000
1aaa
b100 aac

#157000
0aaa

#158000
1aaa
b0 aac

#159000
0aaa

#160000
1aaa
b1 aac

#161000
0aaa

#162000
1aaa
b11 aac

#163000
0aaa

#164000
1aaa
b10 aac

#165000
0aaa

#166000
1aaa
b110 aac

#167000
0aaa

#168000
1aaa
b111 aac

#169000
0aaa

#170000
1aaa
b101 aac

#171000
0aaa

#172000
1aaa
b100 aac

#173000
0aaa

#174000
1aaa
b0 aac

#175000
0aaa

#176000
1aaa
b1 aac

#177000
0aaa

#178000
1aaa
b11 aac

#179000
0aaa

#180000
1aaa
b10 aac

#181000
0aaa

#182000
1aaa
b110 aac

#183000
0aaa

#184000
1aaa
b111 aac

#185000
0aaa

#186000
1aaa
b101 aac

#187000
0aaa

#188000
1aaa
b100 aac

#189000
0aaa

#190000
1aaa
b0 aac

#191000
0aaa

#192000
1aaa
b1 aac

#193000
0aaa

#194000
1aaa
b11 aac

#195000
0aaa

#196000
1aaa
b10 aac

#197000
0aaa

#198000
1aaa
b110 aac

#199000
0aaa

#200000
1aaa
b111 aac

#201000
0aaa

#202000
1aaa
b101 aac

#203000
0aaa

#204000
1aaa
b100 aac

#205000
0aaa

#206000
1aaa
b0 aac

#207000
0aaa

#208000
1aaa
b1 aac

#209000
0aaa

#210000
1aaa
b11 aac

#211000
0aaa

#212000
1aaa
b10 aac

#213000
0aaa

#214000
1aaa
b110 aac

#215000
0aaa

#216000
1aaa
b111 aac

#217000
0aaa

#218000
1aaa
b101 aac

#219000
0aaa

#220000
1aaa
b100 aac

#221000
0aaa

#222000
1aaa
b0 aac

#223000
0aaa

#224000
1aaa
b1 aac

#225000
0aaa

#226000
1aaa
b11 aac

#227000
0aaa

#228000
1aaa
b10 aac

#229000
0aaa

#230000
1aaa
b110 aac

